%YAML 1.1
%TAG !u! tag:unity3d.com,2011:
--- !u!114 &11400000
MonoBehaviour:
  m_ObjectHideFlags: 0
  m_CorrespondingSourceObject: {fileID: 0}
  m_PrefabInstance: {fileID: 0}
  m_PrefabAsset: {fileID: 0}
  m_GameObject: {fileID: 0}
  m_Enabled: 1
  m_EditorHideFlags: 0
  m_Script: {fileID: 11500000, guid: 2fc7de0c49f20bc46bbc6613e6ee04ac, type: 3}
  m_Name: WoodLooter
  m_EditorClassIdentifier: 
  raceName: Wood Raton
  iconSprite: {fileID: -4544401860336574337, guid: 8eeed01575ededc48b5dfa5d1fc9a752,
    type: 3}
  aggressive: 0
  petType: Looter
  rarity: 2
  investigated: 21
  statsFile: {fileID: 4900000, guid: 5977deac0b0ac254b907154b4859d0f2, type: 3}
  lifeMax: 52
  damageBase: 20
  attackRate: 2
  resourceDamage: 0
  lootRate: 3
  kills: 0
  faced: 0
  tammed: 0
  resourceAmount: 0
  favoriteFood: {fileID: 11400000, guid: 1c93f5113bd3b9342bb7810ccc1fdcd3, type: 2}
  info1: La comida favorita de Wood Raton son las setas silvestres de la isla.
  info2: 
  petTammed: {fileID: 1560229733385607050, guid: 32a1120d94f5a8341b51dd32c2b920d3,
    type: 3}
  looterType: 0
