%YAML 1.1
%TAG !u! tag:unity3d.com,2011:
--- !u!114 &11400000
MonoBehaviour:
  m_ObjectHideFlags: 0
  m_CorrespondingSourceObject: {fileID: 0}
  m_PrefabInstance: {fileID: 0}
  m_PrefabAsset: {fileID: 0}
  m_GameObject: {fileID: 0}
  m_Enabled: 1
  m_EditorHideFlags: 0
  m_Script: {fileID: 11500000, guid: e1e3f0434a1a737419064dfe0c1cce98, type: 3}
  m_Name: Cofre
  m_EditorClassIdentifier: 
  itemName: Chest
  itemSpr: {fileID: 0}
  stackable: 0
  stackAmount: 1
  cursorItemArrow: {fileID: 2800000, guid: f8c873f1e53e83f4aabf342d6be1dfc3, type: 3}
  tipo: 0
