%YAML 1.1
%TAG !u! tag:unity3d.com,2011:
--- !u!114 &11400000
MonoBehaviour:
  m_ObjectHideFlags: 0
  m_CorrespondingSourceObject: {fileID: 0}
  m_PrefabInstance: {fileID: 0}
  m_PrefabAsset: {fileID: 0}
  m_GameObject: {fileID: 0}
  m_Enabled: 1
  m_EditorHideFlags: 0
  m_Script: {fileID: 11500000, guid: b5ad0f9e5a518ac44b5bf44dc51124e5, type: 3}
  m_Name: Guantes
  m_EditorClassIdentifier: 
  itemName: Gloves
  itemSpr: {fileID: 2796249303610841876, guid: b0397ace681edcd4ea4f94ee507bd9b9, type: 3}
  stackable: 0
  stackAmount: 1
  cursorItemArrow: {fileID: 2800000, guid: 8ea795c067613354898068091ffc7130, type: 3}
  tipo: 2
  itemDescription: Son unos guantes
  damage: 0
  defense: 10
