%YAML 1.1
%TAG !u! tag:unity3d.com,2011:
--- !u!114 &11400000
MonoBehaviour:
  m_ObjectHideFlags: 0
  m_CorrespondingSourceObject: {fileID: 0}
  m_PrefabInstance: {fileID: 0}
  m_PrefabAsset: {fileID: 0}
  m_GameObject: {fileID: 0}
  m_Enabled: 1
  m_EditorHideFlags: 0
  m_Script: {fileID: 11500000, guid: 3416698daedf62345baada5d657c403b, type: 3}
  m_Name: Manzana
  m_EditorClassIdentifier: 
  itemName: Apple
  itemSpr: {fileID: 5759527504585968705, guid: 25d19c6f5b9176f4db2f3c5f9161999c, type: 3}
  stackable: 1
  stackAmount: 10
  cursorItemArrow: {fileID: 2800000, guid: 8ea795c067613354898068091ffc7130, type: 3}
  tipo: 1
  itemDescription: 
  vidaSum: 0
  hambreSum: 6
  sedSum: 0
  audioClip: {fileID: 8300000, guid: c8c45a776ef470845b44b672f0909143, type: 3}
