%YAML 1.1
%TAG !u! tag:unity3d.com,2011:
--- !u!114 &11400000
MonoBehaviour:
  m_ObjectHideFlags: 0
  m_CorrespondingSourceObject: {fileID: 0}
  m_PrefabInstance: {fileID: 0}
  m_PrefabAsset: {fileID: 0}
  m_GameObject: {fileID: 0}
  m_Enabled: 1
  m_EditorHideFlags: 0
  m_Script: {fileID: 11500000, guid: e1e3f0434a1a737419064dfe0c1cce98, type: 3}
  m_Name: Piedra
  m_EditorClassIdentifier: 
  itemName: Stone
  itemSpr: {fileID: 8855262236090223222, guid: b0397ace681edcd4ea4f94ee507bd9b9, type: 3}
  stackable: 1
  stackAmount: 10
  cursorItemArrow: {fileID: 2800000, guid: 8ea795c067613354898068091ffc7130, type: 3}
  tipo: 0
