%YAML 1.1
%TAG !u! tag:unity3d.com,2011:
--- !u!114 &11400000
MonoBehaviour:
  m_ObjectHideFlags: 0
  m_CorrespondingSourceObject: {fileID: 0}
  m_PrefabInstance: {fileID: 0}
  m_PrefabAsset: {fileID: 0}
  m_GameObject: {fileID: 0}
  m_Enabled: 1
  m_EditorHideFlags: 0
  m_Script: {fileID: 11500000, guid: 315e098d06cb2da4aae7b11a6efc935c, type: 3}
  m_Name: Character
  m_EditorClassIdentifier: 
  itemsInInventory:
  - objeto: {fileID: 11400000, guid: c876b9b6549543e4f8f49850d8dc38f3, type: 2}
    amount: 1
    quickAccess: 0
    quickPos: 0
  - objeto: {fileID: 11400000, guid: 72af822b6dc629b42b1540f223a4b313, type: 2}
    amount: 1
    quickAccess: 0
    quickPos: 0
  - objeto: {fileID: 11400000, guid: e048ab0e168753248bde37e224381b3f, type: 2}
    amount: 10
    quickAccess: 0
    quickPos: 0
  - objeto: {fileID: 11400000, guid: e048ab0e168753248bde37e224381b3f, type: 2}
    amount: 10
    quickAccess: 0
    quickPos: 0
  - objeto: {fileID: 11400000, guid: e048ab0e168753248bde37e224381b3f, type: 2}
    amount: 6
    quickAccess: 1
    quickPos: 5
  - objeto: {fileID: 11400000, guid: 7351f27261aada345b940d645ce6eb5d, type: 2}
    amount: 10
    quickAccess: 0
    quickPos: 0
  - objeto: {fileID: 11400000, guid: 7351f27261aada345b940d645ce6eb5d, type: 2}
    amount: 10
    quickAccess: 0
    quickPos: 0
  - objeto: {fileID: 11400000, guid: 7351f27261aada345b940d645ce6eb5d, type: 2}
    amount: 10
    quickAccess: 0
    quickPos: 0
  - objeto: {fileID: 11400000, guid: 7351f27261aada345b940d645ce6eb5d, type: 2}
    amount: 10
    quickAccess: 0
    quickPos: 0
  - objeto: {fileID: 11400000, guid: 7351f27261aada345b940d645ce6eb5d, type: 2}
    amount: 1
    quickAccess: 0
    quickPos: 0
  - objeto: {fileID: 11400000, guid: 1c93f5113bd3b9342bb7810ccc1fdcd3, type: 2}
    amount: 10
    quickAccess: 0
    quickPos: 0
  - objeto: {fileID: 11400000, guid: 1c93f5113bd3b9342bb7810ccc1fdcd3, type: 2}
    amount: 10
    quickAccess: 0
    quickPos: 0
  - objeto: {fileID: 11400000, guid: 1c93f5113bd3b9342bb7810ccc1fdcd3, type: 2}
    amount: 10
    quickAccess: 0
    quickPos: 0
  - objeto: {fileID: 11400000, guid: 5176a9e7a0c9ff441b318a91057d245f, type: 2}
    amount: 10
    quickAccess: 0
    quickPos: 0
  - objeto: {fileID: 11400000, guid: 5176a9e7a0c9ff441b318a91057d245f, type: 2}
    amount: 10
    quickAccess: 0
    quickPos: 0
  - objeto: {fileID: 11400000, guid: 5176a9e7a0c9ff441b318a91057d245f, type: 2}
    amount: 3
    quickAccess: 0
    quickPos: 0
