%YAML 1.1
%TAG !u! tag:unity3d.com,2011:
--- !u!114 &11400000
MonoBehaviour:
  m_ObjectHideFlags: 0
  m_CorrespondingSourceObject: {fileID: 0}
  m_PrefabInstance: {fileID: 0}
  m_PrefabAsset: {fileID: 0}
  m_GameObject: {fileID: 0}
  m_Enabled: 1
  m_EditorHideFlags: 0
  m_Script: {fileID: 11500000, guid: 315e098d06cb2da4aae7b11a6efc935c, type: 3}
  m_Name: Chest1
  m_EditorClassIdentifier: 
  itemsInInventory:
  - objeto: {fileID: 11400000, guid: 9ec8116bce15dbe479d0e7f260114514, type: 2}
    amount: 5
    quickAccess: 0
    quickPos: 0
  - objeto: {fileID: 11400000, guid: 9ec8116bce15dbe479d0e7f260114514, type: 2}
    amount: 5
    quickAccess: 0
    quickPos: 0
  - objeto: {fileID: 11400000, guid: 9ec8116bce15dbe479d0e7f260114514, type: 2}
    amount: 5
    quickAccess: 0
    quickPos: 0
  - objeto: {fileID: 11400000, guid: 9ec8116bce15dbe479d0e7f260114514, type: 2}
    amount: 5
    quickAccess: 0
    quickPos: 0
  - objeto: {fileID: 11400000, guid: 9ec8116bce15dbe479d0e7f260114514, type: 2}
    amount: 5
    quickAccess: 0
    quickPos: 0
  - objeto: {fileID: 11400000, guid: 9ec8116bce15dbe479d0e7f260114514, type: 2}
    amount: 5
    quickAccess: 0
    quickPos: 0
  - objeto: {fileID: 11400000, guid: 9ec8116bce15dbe479d0e7f260114514, type: 2}
    amount: 5
    quickAccess: 0
    quickPos: 0
  - objeto: {fileID: 11400000, guid: e048ab0e168753248bde37e224381b3f, type: 2}
    amount: 5
    quickAccess: 0
    quickPos: 0
  - objeto: {fileID: 11400000, guid: e048ab0e168753248bde37e224381b3f, type: 2}
    amount: 5
    quickAccess: 0
    quickPos: 0
  - objeto: {fileID: 11400000, guid: e048ab0e168753248bde37e224381b3f, type: 2}
    amount: 5
    quickAccess: 0
    quickPos: 0
  - objeto: {fileID: 11400000, guid: e048ab0e168753248bde37e224381b3f, type: 2}
    amount: 5
    quickAccess: 0
    quickPos: 0
  - objeto: {fileID: 11400000, guid: e048ab0e168753248bde37e224381b3f, type: 2}
    amount: 5
    quickAccess: 0
    quickPos: 0
  - objeto: {fileID: 11400000, guid: e048ab0e168753248bde37e224381b3f, type: 2}
    amount: 5
    quickAccess: 0
    quickPos: 0
  - objeto: {fileID: 11400000, guid: e048ab0e168753248bde37e224381b3f, type: 2}
    amount: 5
    quickAccess: 0
    quickPos: 0
  - objeto: {fileID: 11400000, guid: d1b7bf4ef7acb2b42b76346927472d01, type: 2}
    amount: 5
    quickAccess: 0
    quickPos: 0
  - objeto: {fileID: 11400000, guid: d1b7bf4ef7acb2b42b76346927472d01, type: 2}
    amount: 5
    quickAccess: 0
    quickPos: 0
  - objeto: {fileID: 11400000, guid: d1b7bf4ef7acb2b42b76346927472d01, type: 2}
    amount: 5
    quickAccess: 0
    quickPos: 0
  - objeto: {fileID: 11400000, guid: d1b7bf4ef7acb2b42b76346927472d01, type: 2}
    amount: 5
    quickAccess: 0
    quickPos: 0
  - objeto: {fileID: 11400000, guid: d1b7bf4ef7acb2b42b76346927472d01, type: 2}
    amount: 5
    quickAccess: 0
    quickPos: 0
  - objeto: {fileID: 11400000, guid: d1b7bf4ef7acb2b42b76346927472d01, type: 2}
    amount: 5
    quickAccess: 0
    quickPos: 0
  - objeto: {fileID: 11400000, guid: d1b7bf4ef7acb2b42b76346927472d01, type: 2}
    amount: 5
    quickAccess: 0
    quickPos: 0
