%YAML 1.1
%TAG !u! tag:unity3d.com,2011:
--- !u!114 &11400000
MonoBehaviour:
  m_ObjectHideFlags: 0
  m_CorrespondingSourceObject: {fileID: 0}
  m_PrefabInstance: {fileID: 0}
  m_PrefabAsset: {fileID: 0}
  m_GameObject: {fileID: 0}
  m_Enabled: 1
  m_EditorHideFlags: 0
  m_Script: {fileID: 11500000, guid: 315e098d06cb2da4aae7b11a6efc935c, type: 3}
  m_Name: Chest3
  m_EditorClassIdentifier: 
  itemsInInventory:
  - objeto: {fileID: 11400000, guid: 5176a9e7a0c9ff441b318a91057d245f, type: 2}
    amount: 1
  - objeto: {fileID: 11400000, guid: 7351f27261aada345b940d645ce6eb5d, type: 2}
    amount: 2
  - objeto: {fileID: 11400000, guid: 7351f27261aada345b940d645ce6eb5d, type: 2}
    amount: 4
  - objeto: {fileID: 11400000, guid: 5176a9e7a0c9ff441b318a91057d245f, type: 2}
    amount: 2
