%YAML 1.1
%TAG !u! tag:unity3d.com,2011:
--- !u!114 &11400000
MonoBehaviour:
  m_ObjectHideFlags: 0
  m_CorrespondingSourceObject: {fileID: 0}
  m_PrefabInstance: {fileID: 0}
  m_PrefabAsset: {fileID: 0}
  m_GameObject: {fileID: 0}
  m_Enabled: 1
  m_EditorHideFlags: 0
  m_Script: {fileID: 11500000, guid: 07647fcad2cca2a4cab7fd39ee669c61, type: 3}
  m_Name: Rock1
  m_EditorClassIdentifier: 
  resourceName: Rock
  resourceMaterial: {fileID: 11400000, guid: 7351f27261aada345b940d645ce6eb5d, type: 2}
  lifeMax: 100
  minAmount: 1
  maxAmount: 3
  cursorResourceArrow: {fileID: 2800000, guid: b23a0084fea403945a302e12cc707439, type: 3}
  resourceType: 1
