%YAML 1.1
%TAG !u! tag:unity3d.com,2011:
--- !u!114 &11400000
MonoBehaviour:
  m_ObjectHideFlags: 0
  m_CorrespondingSourceObject: {fileID: 0}
  m_PrefabInstance: {fileID: 0}
  m_PrefabAsset: {fileID: 0}
  m_GameObject: {fileID: 0}
  m_Enabled: 1
  m_EditorHideFlags: 0
  m_Script: {fileID: 11500000, guid: d66059726045b4947a68cc522a4a2f61, type: 3}
  m_Name: Boomerang
  m_EditorClassIdentifier: 
  craftedItem: {fileID: 11400000, guid: c876b9b6549543e4f8f49850d8dc38f3, type: 2}
  craftedType: 1
  materialNeeded:
  - material: {fileID: 11400000, guid: 5176a9e7a0c9ff441b318a91057d245f, type: 2}
    amount: 8
