%YAML 1.1
%TAG !u! tag:unity3d.com,2011:
--- !u!1 &5151301287457959726
GameObject:
  m_ObjectHideFlags: 0
  m_CorrespondingSourceObject: {fileID: 0}
  m_PrefabInstance: {fileID: 0}
  m_PrefabAsset: {fileID: 0}
  serializedVersion: 6
  m_Component:
  - component: {fileID: 5151301287457959724}
  - component: {fileID: 5151301287457959727}
  m_Layer: 0
  m_Name: PetInstatiateManager
  m_TagString: Untagged
  m_Icon: {fileID: 0}
  m_NavMeshLayer: 0
  m_StaticEditorFlags: 0
  m_IsActive: 1
--- !u!4 &5151301287457959724
Transform:
  m_ObjectHideFlags: 0
  m_CorrespondingSourceObject: {fileID: 0}
  m_PrefabInstance: {fileID: 0}
  m_PrefabAsset: {fileID: 0}
  m_GameObject: {fileID: 5151301287457959726}
  m_LocalRotation: {x: -0, y: -0, z: -0, w: 1}
  m_LocalPosition: {x: 6.119995, y: 1.5700073, z: 17.17}
  m_LocalScale: {x: 1, y: 1, z: 1}
  m_Children: []
  m_Father: {fileID: 0}
  m_RootOrder: 0
  m_LocalEulerAnglesHint: {x: 0, y: 0, z: 0}
--- !u!114 &5151301287457959727
MonoBehaviour:
  m_ObjectHideFlags: 0
  m_CorrespondingSourceObject: {fileID: 0}
  m_PrefabInstance: {fileID: 0}
  m_PrefabAsset: {fileID: 0}
  m_GameObject: {fileID: 5151301287457959726}
  m_Enabled: 1
  m_EditorHideFlags: 0
  m_Script: {fileID: 11500000, guid: 522a9159aa067a349b90594283a3e162, type: 3}
  m_Name: 
  m_EditorClassIdentifier: 
  petList: {fileID: 11400000, guid: 8366c89b173468e4394ff067eff92ddc, type: 2}
  inScenePets: []
  petPrefabs:
  - {fileID: 2029486739036520352, guid: d305049784bd63249ab807454cd3ac69, type: 3}
  - {fileID: 1560229733385607050, guid: 32a1120d94f5a8341b51dd32c2b920d3, type: 3}
  saveAnim: {fileID: 0}
