%YAML 1.1
%TAG !u! tag:unity3d.com,2011:
--- !u!1 &8729440458214805143
GameObject:
  m_ObjectHideFlags: 0
  m_CorrespondingSourceObject: {fileID: 0}
  m_PrefabInstance: {fileID: 0}
  m_PrefabAsset: {fileID: 0}
  serializedVersion: 6
  m_Component:
  - component: {fileID: 8729440458214805141}
  - component: {fileID: 8729440458214805140}
  m_Layer: 0
  m_Name: WildPetManager
  m_TagString: Untagged
  m_Icon: {fileID: 0}
  m_NavMeshLayer: 0
  m_StaticEditorFlags: 0
  m_IsActive: 1
--- !u!4 &8729440458214805141
Transform:
  m_ObjectHideFlags: 0
  m_CorrespondingSourceObject: {fileID: 0}
  m_PrefabInstance: {fileID: 0}
  m_PrefabAsset: {fileID: 0}
  m_GameObject: {fileID: 8729440458214805143}
  m_LocalRotation: {x: 0, y: 0, z: 0, w: 1}
  m_LocalPosition: {x: 0, y: 0, z: 0}
  m_LocalScale: {x: 1, y: 1, z: 1}
  m_Children: []
  m_Father: {fileID: 0}
  m_RootOrder: 0
  m_LocalEulerAnglesHint: {x: 0, y: 0, z: 0}
--- !u!114 &8729440458214805140
MonoBehaviour:
  m_ObjectHideFlags: 0
  m_CorrespondingSourceObject: {fileID: 0}
  m_PrefabInstance: {fileID: 0}
  m_PrefabAsset: {fileID: 0}
  m_GameObject: {fileID: 8729440458214805143}
  m_Enabled: 1
  m_EditorHideFlags: 0
  m_Script: {fileID: 11500000, guid: c2fd2af9abb55bf44b048e51a54070b8, type: 3}
  m_Name: 
  m_EditorClassIdentifier: 
  currentWildPet: {fileID: 0}
  selectedWildPet: {fileID: 0}
  nameUI: {fileID: 0}
  lifeUI: {fileID: 0}
  tammingUI: {fileID: 0}
  petManager: {fileID: 0}
  cursorArrow: {fileID: 2800000, guid: 2e71a8202d3b4a3448ec85ced5a40265, type: 3}
  cursorWildPetArrow: {fileID: 2800000, guid: 2a2b4775272c890448e1bd6239fdfc84, type: 3}
  cursorAttackArrow: {fileID: 2800000, guid: 2d18e23e3ce249b4489b8bcdd02d3f48, type: 3}
