%YAML 1.1
%TAG !u! tag:unity3d.com,2011:
--- !u!114 &11400000
MonoBehaviour:
  m_ObjectHideFlags: 0
  m_CorrespondingSourceObject: {fileID: 0}
  m_PrefabInstance: {fileID: 0}
  m_PrefabAsset: {fileID: 0}
  m_GameObject: {fileID: 0}
  m_Enabled: 1
  m_EditorHideFlags: 0
  m_Script: {fileID: 11500000, guid: e8674a39cb66caf4f94e185005b1948b, type: 3}
  m_Name: AllMyPets
  m_EditorClassIdentifier: 
  allPets:
  - petRaceInfo: {fileID: 11400000, guid: fad4a959cc012bc4793ca1371863f9fb, type: 2}
    petName: Rock Raton
    life: 56
    lifeMax: 56
    attackRate: 3
    lootRate: 3
    damage: 26
    inventory: {fileID: 11400000, guid: b62cd04fa4d37ec42b96bba8e22d059a, type: 2}
    armor:
      objeto: {fileID: 0}
      amount: 0
      quickAccess: 0
      quickPos: 0
    item:
      objeto: {fileID: 0}
      amount: 0
      quickAccess: 0
      quickPos: 0
    food:
      objeto: {fileID: 0}
      amount: 0
      quickAccess: 0
      quickPos: 0
    pos: {x: 6.0534954, y: 3.0349994, z: 0.2389456}
    rot: {x: -0, y: -0.90642124, z: -0, w: 0.42237493}
    currentScene: 2
    petKey: Pet_1
    currentExperience: 180
    experienceToLvlUp: 250
    level: 4
    inStable: 1
  - petRaceInfo: {fileID: 11400000, guid: fad4a959cc012bc4793ca1371863f9fb, type: 2}
    petName: Rock Raton
    life: 52
    lifeMax: 52
    attackRate: 3
    lootRate: 3
    damage: 22
    inventory: {fileID: 11400000, guid: 3b01998b239fe094dabe0a77181eb193, type: 2}
    armor:
      objeto: {fileID: 0}
      amount: 0
      quickAccess: 0
      quickPos: 0
    item:
      objeto: {fileID: 0}
      amount: 0
      quickAccess: 0
      quickPos: 0
    food:
      objeto: {fileID: 0}
      amount: 0
      quickAccess: 0
      quickPos: 0
    pos: {x: 8.787918, y: 3.0349994, z: 7.180877}
    rot: {x: -0, y: -0.049758542, z: -0, w: 0.99876136}
    currentScene: 2
    petKey: Pet_2
    currentExperience: 0
    experienceToLvlUp: 100
    level: 1
    inStable: 1
  - petRaceInfo: {fileID: 11400000, guid: d773eeffe21daa44994b20451b5c97c2, type: 2}
    petName: Wood Raton
    life: 50
    lifeMax: 50
    attackRate: 2
    lootRate: 3
    damage: 20
    inventory: {fileID: 11400000, guid: a78f56c014376fa48a053b61497e8770, type: 2}
    armor:
      objeto: {fileID: 11400000, guid: 7d072ca1e19bf2749884005fa59c12e1, type: 2}
      amount: 1
      quickAccess: 0
      quickPos: 0
    item:
      objeto: {fileID: 11400000, guid: 72af822b6dc629b42b1540f223a4b313, type: 2}
      amount: 1
      quickAccess: 0
      quickPos: 0
    food:
      objeto: {fileID: 11400000, guid: e048ab0e168753248bde37e224381b3f, type: 2}
      amount: 5
      quickAccess: 0
      quickPos: 0
    pos: {x: -9.581012, y: 2.0375385, z: 0.13184038}
    rot: {x: -0, y: -0.77973944, z: -0, w: 0.6261042}
    currentScene: 2
    petKey: Pet_3
    currentExperience: 0
    experienceToLvlUp: 100
    level: 1
    inStable: 0
  - petRaceInfo: {fileID: 11400000, guid: d773eeffe21daa44994b20451b5c97c2, type: 2}
    petName: Wood Raton
    life: 52
    lifeMax: 52
    attackRate: 2
    lootRate: 3
    damage: 22
    inventory: {fileID: 11400000, guid: 2dd21f4c34a7daf4b8b7646c7d608d95, type: 2}
    armor:
      objeto: {fileID: 11400000, guid: 7d072ca1e19bf2749884005fa59c12e1, type: 2}
      amount: 1
      quickAccess: 0
      quickPos: 0
    item:
      objeto: {fileID: 11400000, guid: 72af822b6dc629b42b1540f223a4b313, type: 2}
      amount: 1
      quickAccess: 0
      quickPos: 0
    food:
      objeto: {fileID: 11400000, guid: e048ab0e168753248bde37e224381b3f, type: 2}
      amount: 5
      quickAccess: 0
      quickPos: 0
    pos: {x: 59.576538, y: 3.8210692, z: 180.83348}
    rot: {x: -0, y: -0.51770097, z: -0, w: 0.8555616}
    currentScene: 1
    petKey: Pet_4
    currentExperience: 35
    experienceToLvlUp: 150
    level: 2
    inStable: 0
  - petRaceInfo: {fileID: 11400000, guid: d773eeffe21daa44994b20451b5c97c2, type: 2}
    petName: Wood Raton
    life: 50
    lifeMax: 50
    attackRate: 2
    lootRate: 3
    damage: 20
    inventory: {fileID: 11400000, guid: 3eddd5e577a747a429f2861ddaae8752, type: 2}
    armor:
      objeto: {fileID: 11400000, guid: 7d072ca1e19bf2749884005fa59c12e1, type: 2}
      amount: 1
      quickAccess: 0
      quickPos: 0
    item:
      objeto: {fileID: 11400000, guid: 72af822b6dc629b42b1540f223a4b313, type: 2}
      amount: 1
      quickAccess: 0
      quickPos: 0
    food:
      objeto: {fileID: 11400000, guid: e048ab0e168753248bde37e224381b3f, type: 2}
      amount: 5
      quickAccess: 0
      quickPos: 0
    pos: {x: 8.318751, y: 3.0249994, z: 6.408483}
    rot: {x: -0, y: -0, z: -0, w: 1}
    currentScene: 2
    petKey: Pet_5
    currentExperience: 0
    experienceToLvlUp: 100
    level: 1
    inStable: 1
  numPets: 5
